<svg xmlns="http://www.w3.org/2000/svg" width="144" height="20.899" viewBox="0 0 144 20.899">
    <defs>
        <clipPath id="prefix__clip-path">
            <path id="prefix__Rechteck_17536" d="M0 0H144V20.899H0z" data-name="Rechteck 17536" style="fill:none"/>
        </clipPath>
        <style>
            .prefix__cls-3{fill:#fff}
        </style>
    </defs>
    <g id="prefix__Horizontal_White" data-name="Horizontal White" transform="translate(72 10.45)">
        <g id="prefix__Horizontal_White-2" data-name="Horizontal White" transform="translate(-72 -10.45)">
            <path id="prefix__Pfad_12117" d="M56.156 1.028l-4.688 2.707c-1.841-1.841-4.277-.9-5.782-.032S42.7 6.15 43.607 7.73c.8 1.4 2.025 1.1 8.164-.92a17.911 17.911 0 0 1 4.363-1.018c2.4-.011 4.4.8 5.338 2.436a4.092 4.092 0 0 1 .195.379V1.093A1.429 1.429 0 0 0 60.27 0H55.2a4 4 0 0 1 .953 1.029" class="prefix__cls-3" data-name="Pfad 12117" transform="translate(-38.637)"/>
            <path id="prefix__Pfad_12119" d="M5.863.715A15.45 15.45 0 0 1 7.281 0H1.608A1.429 1.429 0 0 0 .2 1.169v5.782A12.628 12.628 0 0 1 5.863.715" class="prefix__cls-3" data-name="Pfad 12119" transform="translate(-.178)"/>
            <path id="prefix__Pfad_12120" d="M4.293 107.278l-.022-.043 4.656-2.685c1.916 2.176 4.84 1.3 6.615.282s4.017-2.869 2.9-4.786c-1.711-2.967-8.64 1.862-13.772 1.711A5.584 5.584 0 0 1 .828 100.1a5.619 5.619 0 0 1-.52-.725L.2 99.147v8.932a1.429 1.429 0 0 0 1.408 1.169h5.11a4.681 4.681 0 0 1-2.418-1.97" class="prefix__cls-3" data-name="Pfad 12120" transform="translate(-.178 -88.353)"/>
            <path id="prefix__Pfad_12121" d="M126.305 122.978a16.2 16.2 0 0 1-3.605 1.537h8.348a1.429 1.429 0 0 0 1.386-1.094V116.2a13.421 13.421 0 0 1-6.128 6.778" class="prefix__cls-3" data-name="Pfad 12121" transform="translate(-109.415 -103.619)"/>
            <path id="prefix__Pfad_12122" d="M277.341 42.573a3.952 3.952 0 0 1-1.191 1.227 6.215 6.215 0 0 1-1.819.812 8.478 8.478 0 0 1-2.274.292 11.3 11.3 0 0 1-1.862-.141 6.94 6.94 0 0 1-1.548-.444 5.965 5.965 0 0 1-1.31-.758 7.319 7.319 0 0 1-1.137-1.083l1.278-1.061a4.84 4.84 0 0 0 1.83 1.418 6.789 6.789 0 0 0 2.772.487 6.247 6.247 0 0 0 1.841-.249 5.284 5.284 0 0 0 1.343-.606 2.079 2.079 0 0 0 .671-.66 1.505 1.505 0 0 0 .227-.79 1.319 1.319 0 0 0-.26-.866 1.927 1.927 0 0 0-.6-.487 3.247 3.247 0 0 0-.422-.206 6.117 6.117 0 0 0-.617-.206l-.971-.252-1.483-.325-1.494-.346-.985-.26q-.39-.119-.65-.217l-.487-.227a2.555 2.555 0 0 1-.541-.368 2.587 2.587 0 0 1-.455-.531 2.837 2.837 0 0 1-.325-.682 2.75 2.75 0 0 1-.13-.855 2.685 2.685 0 0 1 .39-1.375 2.875 2.875 0 0 1 1.223-1.083 5.64 5.64 0 0 1 1.689-.563 12.116 12.116 0 0 1 2.09-.173 10.979 10.979 0 0 1 1.808.13 5.229 5.229 0 0 1 1.429.444 4.244 4.244 0 0 1 1.126.8 5.75 5.75 0 0 1 .909 1.18l-1.451.769a3.952 3.952 0 0 0-.563-.769 2.642 2.642 0 0 0-.758-.541 4.039 4.039 0 0 0-1.061-.336 8.207 8.207 0 0 0-1.44-.108 10.373 10.373 0 0 0-1.732.13 3.714 3.714 0 0 0-1.245.4 1.548 1.548 0 0 0-.585.487 1.137 1.137 0 0 0-.173.628 1.028 1.028 0 0 0 .184.606 1.3 1.3 0 0 0 .5.422l.455.184.639.184.953.238 1.418.325 1.267.282q.563.13 1.007.26a6.279 6.279 0 0 1 .812.3 6.2 6.2 0 0 1 .693.368 3.767 3.767 0 0 1 .531.422 3.161 3.161 0 0 1 .476.563 2.868 2.868 0 0 1 .336.725 3.107 3.107 0 0 1-.314 2.479" class="prefix__cls-3" data-name="Pfad 12122" transform="translate(-237.378 -28.53)"/>
            <path id="prefix__Pfad_12123" d="M400.85 46.473V40.94q0-1.148.011-2.09t.011-1.711l-2.555 3.833-3.66 5.489h-1.039l-3.66-5.5-2.534-3.822q.011 1.548.011 3.833v5.5H385.8V34h1.483q2.458 3.725 4.168 6.28l2.707 4.049 2.7-4.06L401.023 34h1.477v12.473z" class="prefix__cls-3" data-name="Pfad 12123" transform="translate(-344.029 -30.319)"/>
            <path id="prefix__Pfad_12124" d="M562.8 46.473l-1.754-3.9h-5.035l-1.732 3.9H552.5L558 34h1.061l5.533 12.462zm-3.432-7.817l-.411-.942-.422-.964q-.184.476-.39.931l-.4.909-1.029 2.393h3.638z" class="prefix__cls-3" data-name="Pfad 12124" transform="translate(-492.68 -30.319)"/>
            <path id="prefix__Pfad_12125" d="M686.739 46.473l-4.991-4.851h-3.313v4.851H676.8V34h4.4a9.121 9.121 0 0 1 4.6.931 3.046 3.046 0 0 1 1.559 2.793 3.129 3.129 0 0 1-.271 1.321 3.68 3.68 0 0 1-.747 1.072 4.417 4.417 0 0 1-1.115.8 6.062 6.062 0 0 1-1.386.509l5.251 5.045zm-1.148-9.452a1.444 1.444 0 0 0-.6-.682 4.316 4.316 0 0 0-1.408-.531 11.622 11.622 0 0 0-2.523-.217h-2.631v4.429h3.692a5.522 5.522 0 0 0 1.635-.217 3.606 3.606 0 0 0 1.115-.541 2.155 2.155 0 0 0 .639-.736 1.786 1.786 0 0 0 .206-.8 2.174 2.174 0 0 0-.13-.7" class="prefix__cls-3" data-name="Pfad 12125" transform="translate(-603.522 -30.319)"/>
            <path id="prefix__Pfad_12126" d="M811.429 46.473L806.1 40.41 804.435 42v4.472H802.8V34h1.635v5.8l1.159-1.126 1.169-1.126 3.7-3.551h2.328l-5.533 5.294 6.366 7.168z" class="prefix__cls-3" data-name="Pfad 12126" transform="translate(-715.88 -30.319)"/>
            <path id="prefix__Pfad_12127" d="M915.3 46.473V34h8.629v1.592h-6.983v3.595h5.673v1.592h-5.673v4.1h7.2v1.592z" class="prefix__cls-3" data-name="Pfad 12127" transform="translate(-816.2 -30.319)"/>
            <path id="prefix__Pfad_12128" d="M1015.836 35.592v10.881h-1.636V35.592h-4.6V34h10.838v1.592z" class="prefix__cls-3" data-name="Pfad 12128" transform="translate(-900.29 -30.319)"/>
            <path id="prefix__Pfad_12129" d="M1122.3 46.473V34h8.629v1.592h-6.983v3.595h5.673v1.592h-5.673v4.1h7.2v1.592z" class="prefix__cls-3" data-name="Pfad 12129" transform="translate(-1000.788 -30.319)"/>
            <path id="prefix__Pfad_12130" d="M1226.539 46.473l-4.991-4.851h-3.313v4.851h-1.635V34h4.4a9.121 9.121 0 0 1 4.6.931 3.046 3.046 0 0 1 1.559 2.793 3.129 3.129 0 0 1-.271 1.321 3.682 3.682 0 0 1-.747 1.072 4.4 4.4 0 0 1-1.115.8 6.06 6.06 0 0 1-1.386.509l5.251 5.045zm-1.148-9.452a1.444 1.444 0 0 0-.6-.682 4.315 4.315 0 0 0-1.407-.531 11.622 11.622 0 0 0-2.523-.217h-2.631v4.429h3.692a5.522 5.522 0 0 0 1.635-.217 3.6 3.6 0 0 0 1.115-.541 2.155 2.155 0 0 0 .639-.736 1.785 1.785 0 0 0 .206-.8 2.191 2.191 0 0 0-.13-.7" class="prefix__cls-3" data-name="Pfad 12130" transform="translate(-1084.878 -30.319)"/>
        </g>
    </g>
</svg>
